{
    "name": "dnd5e-phb-ptbr",
    "title": "D&D 5e: Livro do Jogador - Conteúdo",
    "description": "Um módulo contendo raças, classes, antecedentes, habilidades, magias e outras coisas presentes no Livro do Jogador de D&D 5e.<br>OBS. Distâncias estão em metros e/ou quilômetros e pesos estão em quilogramas.",
    "author": "Melithian539",
    "version": "0.0.5",
    "minimumCoreVersion": "0.7.6",
    "compatibleCoreVersion": "0.7.9",
    "dependencies": [
      {
        "name": "metric-system-dnd5e",
        "manifest": "https://gitlab.com/foundryvtt-pt-br/foundryvtt-dnd5e-brazilian-portuguese/raw/master/dnd5e_pt-BR/module.json",
        "version": "2.0.0"
      }
    ],
    "packs": [
      {
        "name": "magias-livro-do-jogador",
        "label": "Magias (Livro do Jogador)",
        "system": "dnd5e",
        "path": "./packs/magias-livro-do-jogador.db",
        "entity": "Item"
      },
      {
        "name": "classes-livro-do-jogador",
        "label": "Classes (Livro do Jogador)",
        "system": "dnd5e",
        "path": "./packs/classes-livro-do-jogador.db",
        "entity": "Item"
      },
      {
        "name": "racas-livro-do-jogador",
        "label": "Raças (Livro do Jogador)",
        "system": "dnd5e",
        "path": "./packs/racas-livro-do-jogador.db",
        "entity": "Item"
      },
      {
        "name": "classes-features-livro-do-jogador",
        "label": "Características de Classe (Livro do Jogador)",
        "system": "dnd5e",
        "path": "./packs/classes-features-livro-do-jogador.db",
        "entity": "Item"
      },
      {
        "name": "antecedentes-livro-do-jogador",
        "label": "Antecedentes (Livro do Jogador)",
        "system": "dnd5e",
        "path": "./packs/antecedentes-livro-do-jogador.db",
        "entity": "Item"
      },
      {
        "name": "equipamento-livro-do-jogador",
        "label": "Equipamentos (Livro do Jogador)",
        "system": "dnd5e",
        "path": "./packs/equipamento-livro-do-jogador.db",
        "entity": "Item"
      },
      {
        "name": "mercadorias-livro-do-jogador",
        "label": "Mercadorias (Livro do Jogador)",
        "system": "dnd5e",
        "path": "./packs/mercadorias-livro-do-jogador.db",
        "entity": "Item"
      },
      {
        "name": "talentos-livro-do-jogador",
        "label": "Talentos (Livro do Jogador)",
        "system": "dnd5e",
        "path": "./packs/talentos-livro-do-jogador.db",
        "entity": "Item"
      }
  ],
  "systems": [
    "dnd5e"
  ],
  "minimumSystemVersion": "1.2.4",
  "url": "https://gitlab.com/foundry-vtt/foundry-vtt-share-ldj",
  "manifest": "https://gitlab.com/foundry-vtt/foundry-vtt-share-ldj/raw/master/module.json",
  "download": "https://gitlab.com/foundry-vtt/foundry-vtt-share-ldj/-/jobs/artifacts/master/raw/dnd5e-phb-ptbr.zip?job=build"

  }